<?xml version="1.0" encoding="UTF-8" standalone="no"?><svg xmlns="http://www.w3.org/2000/svg" xmlns:xlink="http://www.w3.org/1999/xlink" contentStyleType="text/css" height="373px" preserveAspectRatio="none" style="width:413px;height:373px;background:#FFFFFF;" version="1.1" viewBox="0 0 413 373" width="413px" zoomAndPan="magnify"><defs/><g><line style="stroke:#444444;stroke-width:0.5;stroke-dasharray:5.0,5.0;" x1="27" x2="27" y1="86.9688" y2="286.8125"/><line style="stroke:#444444;stroke-width:0.5;stroke-dasharray:5.0,5.0;" x1="150.5" x2="150.5" y1="86.9688" y2="286.8125"/><line style="stroke:#444444;stroke-width:0.5;stroke-dasharray:5.0,5.0;" x1="207.5" x2="207.5" y1="86.9688" y2="286.8125"/><line style="stroke:#444444;stroke-width:0.5;stroke-dasharray:5.0,5.0;" x1="262.5" x2="262.5" y1="86.9688" y2="286.8125"/><line style="stroke:#444444;stroke-width:0.5;stroke-dasharray:5.0,5.0;" x1="317.5" x2="317.5" y1="86.9688" y2="286.8125"/><line style="stroke:#444444;stroke-width:0.5;stroke-dasharray:5.0,5.0;" x1="378.5" x2="378.5" y1="86.9688" y2="286.8125"/><text fill="#444444" font-family="sans-serif" font-size="12" lengthAdjust="spacing" textLength="30" x="9" y="80.1387">Foo1</text><ellipse cx="27" cy="13.5" fill="#66BCF0" rx="8" ry="8" style="stroke:#444444;stroke-width:0.5;"/><path d="M27,21.5 L27,48.5 M14,29.5 L40,29.5 M27,48.5 L14,63.5 M27,48.5 L40,63.5 " fill="none" style="stroke:#444444;stroke-width:0.5;"/><text fill="#444444" font-family="sans-serif" font-size="12" lengthAdjust="spacing" textLength="30" x="9" y="300.9512">Foo1</text><ellipse cx="27" cy="316.2813" fill="#66BCF0" rx="8" ry="8" style="stroke:#444444;stroke-width:0.5;"/><path d="M27,324.2813 L27,351.2813 M14,332.2813 L40,332.2813 M27,351.2813 L14,366.2813 M27,351.2813 L40,366.2813 " fill="none" style="stroke:#444444;stroke-width:0.5;"/><text fill="#444444" font-family="sans-serif" font-size="12" lengthAdjust="spacing" textLength="31" x="132.5" y="80.1387">Foo2</text><path d="M130.5,37 L130.5,61 M130.5,49 L147.5,49 " fill="none" style="stroke:#444444;stroke-width:0.5;"/><ellipse cx="159.5" cy="49" fill="#66BCF0" rx="12" ry="12" style="stroke:#444444;stroke-width:0.5;"/><text fill="#444444" font-family="sans-serif" font-size="12" lengthAdjust="spacing" textLength="31" x="132.5" y="300.9512">Foo2</text><path d="M130.5,311.7813 L130.5,335.7813 M130.5,323.7813 L147.5,323.7813 " fill="none" style="stroke:#444444;stroke-width:0.5;"/><ellipse cx="159.5" cy="323.7813" fill="#66BCF0" rx="12" ry="12" style="stroke:#444444;stroke-width:0.5;"/><text fill="#444444" font-family="sans-serif" font-size="12" lengthAdjust="spacing" textLength="31" x="189.5" y="80.1387">Foo3</text><ellipse cx="208" cy="49" fill="#66BCF0" rx="12" ry="12" style="stroke:#444444;stroke-width:0.5;"/><polygon fill="#444444" points="204,37,210,32,208,37,210,42,204,37" style="stroke:#444444;stroke-width:1.0;"/><text fill="#444444" font-family="sans-serif" font-size="12" lengthAdjust="spacing" textLength="31" x="189.5" y="300.9512">Foo3</text><ellipse cx="208" cy="323.7813" fill="#66BCF0" rx="12" ry="12" style="stroke:#444444;stroke-width:0.5;"/><polygon fill="#444444" points="204,311.7813,210,306.7813,208,311.7813,210,316.7813,204,311.7813" style="stroke:#444444;stroke-width:1.0;"/><text fill="#444444" font-family="sans-serif" font-size="12" lengthAdjust="spacing" textLength="31" x="244.5" y="80.1387">Foo4</text><ellipse cx="263" cy="49" fill="#66BCF0" rx="12" ry="12" style="stroke:#444444;stroke-width:0.5;"/><line style="stroke:#444444;stroke-width:0.5;" x1="251" x2="275" y1="63" y2="63"/><text fill="#444444" font-family="sans-serif" font-size="12" lengthAdjust="spacing" textLength="31" x="244.5" y="300.9512">Foo4</text><ellipse cx="263" cy="323.7813" fill="#66BCF0" rx="12" ry="12" style="stroke:#444444;stroke-width:0.5;"/><line style="stroke:#444444;stroke-width:0.5;" x1="251" x2="275" y1="337.7813" y2="337.7813"/><text fill="#444444" font-family="sans-serif" font-size="12" lengthAdjust="spacing" textLength="31" x="299.5" y="80.1387">Foo5</text><path d="M300,29 C300,19 318,19 318,19 C318,19 336,19 336,29 L336,55 C336,65 318,65 318,65 C318,65 300,65 300,55 L300,29 " fill="#66BCF0" style="stroke:#444444;stroke-width:1.5;"/><path d="M300,29 C300,39 318,39 318,39 C318,39 336,39 336,29 " fill="none" style="stroke:#444444;stroke-width:1.5;"/><text fill="#444444" font-family="sans-serif" font-size="12" lengthAdjust="spacing" textLength="31" x="299.5" y="300.9512">Foo5</text><path d="M300,317.7813 C300,307.7813 318,307.7813 318,307.7813 C318,307.7813 336,307.7813 336,317.7813 L336,343.7813 C336,353.7813 318,353.7813 318,353.7813 C318,353.7813 300,353.7813 300,343.7813 L300,317.7813 " fill="#66BCF0" style="stroke:#444444;stroke-width:1.5;"/><path d="M300,317.7813 C300,327.7813 318,327.7813 318,327.7813 C318,327.7813 336,327.7813 336,317.7813 " fill="none" style="stroke:#444444;stroke-width:1.5;"/><rect fill="#66BCF0" height="35.9688" rx="2" ry="2" style="stroke:#444444;stroke-width:0.5;" width="53" x="354.5" y="46"/><rect fill="#66BCF0" height="35.9688" rx="2" ry="2" style="stroke:#444444;stroke-width:0.5;" width="53" x="350.5" y="50"/><text fill="#444444" font-family="sans-serif" font-size="12" lengthAdjust="spacing" textLength="31" x="361.5" y="72.1387">Foo6</text><rect fill="#66BCF0" height="35.9688" rx="2" ry="2" style="stroke:#444444;stroke-width:0.5;" width="53" x="354.5" y="285.8125"/><rect fill="#66BCF0" height="35.9688" rx="2" ry="2" style="stroke:#444444;stroke-width:0.5;" width="53" x="350.5" y="289.8125"/><text fill="#444444" font-family="sans-serif" font-size="12" lengthAdjust="spacing" textLength="31" x="361.5" y="311.9512">Foo6</text><polygon fill="#444444" points="139,120.9375,149,124.9375,139,128.9375,143,124.9375" style="stroke:#444444;stroke-width:1.0;"/><line style="stroke:#444444;stroke-width:3.0;" x1="27" x2="145" y1="124.9375" y2="124.9375"/><text fill="#444444" font-family="sans-serif" font-size="12" font-weight="bold" lengthAdjust="spacing" textLength="92" x="38" y="116.1074">To boundary</text><polygon fill="#444444" points="196,156.9063,206,160.9063,196,164.9063,200,160.9063" style="stroke:#444444;stroke-width:1.0;"/><line style="stroke:#444444;stroke-width:3.0;" x1="27" x2="202" y1="160.9063" y2="160.9063"/><text fill="#444444" font-family="sans-serif" font-size="12" font-weight="bold" lengthAdjust="spacing" textLength="76" x="38" y="152.0762">To control</text><polygon fill="#444444" points="251,192.875,261,196.875,251,200.875,255,196.875" style="stroke:#444444;stroke-width:1.0;"/><line style="stroke:#444444;stroke-width:3.0;" x1="27" x2="257" y1="196.875" y2="196.875"/><text fill="#444444" font-family="sans-serif" font-size="12" font-weight="bold" lengthAdjust="spacing" textLength="67" x="38" y="188.0449">To entity</text><polygon fill="#444444" points="306,228.8438,316,232.8438,306,236.8438,310,232.8438" style="stroke:#444444;stroke-width:1.0;"/><line style="stroke:#444444;stroke-width:3.0;" x1="27" x2="312" y1="232.8438" y2="232.8438"/><text fill="#444444" font-family="sans-serif" font-size="12" font-weight="bold" lengthAdjust="spacing" textLength="92" x="38" y="224.0137">To database</text><polygon fill="#444444" points="367,264.8125,377,268.8125,367,272.8125,371,268.8125" style="stroke:#444444;stroke-width:1.0;"/><line style="stroke:#444444;stroke-width:3.0;" x1="27" x2="373" y1="268.8125" y2="268.8125"/><text fill="#444444" font-family="sans-serif" font-size="12" font-weight="bold" lengthAdjust="spacing" textLength="102" x="38" y="259.9824">To collections</text><!--MD5=[9e7f1403073b118f1d1ba6c63199735a]
@startuml
!define BG_MAIN_COLOR      #66BCF0
!define BG_SECONDARY_COLOR #B4BCBE
!define BG_PACKAGE_COLOR   #eeb291
!define BORDER_COLOR       #444444
!define FONT_COLOR         #444444


' include the general skinparams for both, light and dark
' to overwrite with the given settings
!define BORDER_THICKNESS 3

skinparam Padding 4
skinparam RoundCorner 4
skinparam Shadowing false

skinparam Default {
'FontName "Open Sans Semibold"
FontColor FONT_COLOR
FontSize 12
}

skinparam Arrow {
Color FONT_COLOR
FontColor FONT_COLOR
FontStyle Bold
}

skinparam package {
FontColor FONT_COLOR
BackgroundColor BG_MAIN_COLOR
BorderColor BORDER_COLOR
}
skinparam node {
FontColor FONT_COLOR
BackgroundColor BG_PACKAGE_COLOR
BorderColor BORDER_COLOR
}
skinparam component {
BackgroundColor BG_MAIN_COLOR
BorderColor BORDER_COLOR
FontColor FONT_COLOR
Style uml2
}

skinparam database {
BackgroundColor BG_MAIN_COLOR
BorderColor BORDER_COLOR
FontColor FONT_COLOR
}

skinparam cloud {
BackgroundColor BG_MAIN_COLOR
BorderColor BORDER_COLOR
FontColor FONT_COLOR
}

skinparam collections {
BackgroundColor BG_MAIN_COLOR
BorderColor BORDER_COLOR
FontColor FONT_COLOR
}
skinparam Control {
BackgroundColor BG_MAIN_COLOR
BorderColor BORDER_COLOR
FontColor FONT_COLOR
}
skinparam Boundary {
BackgroundColor BG_MAIN_COLOR
BorderColor BORDER_COLOR
FontColor FONT_COLOR
}
skinparam Entity {
BackgroundColor BG_MAIN_COLOR
BorderColor BORDER_COLOR
FontColor FONT_COLOR
}
skinparam interface {
BackgroundColor BG_MAIN_COLOR
BorderColor BORDER_COLOR
FontColor FONT_COLOR
}
skinparam SequenceParticipantBorderThickness 3
skinparam sequence {
ParticipantBackgroundColor BG_MAIN_COLOR
ParticipantBorderColor BORDER_COLOR
ParticipantFontStyle normal
ParticipantFontColor FONT_COLOR
LifeLineBorderColor BORDER_COLOR
LifeLineBackgroundColor BG_MAIN_COLOR
ArrowColor FONT_COLOR
ArrowBorderColor BORDER_COLOR
ArrowFontColor FONT_COLOR
ArrowThickness 3
ActorBackgroundColor BG_MAIN_COLOR
ActorBorderColor BORDER_COLOR
ActorFontColor FONT_COLOR
}

' C4 Styling
' ##################################

skinparam rectangle<<person>> {
StereotypeFontColor FONT_COLOR
FontColor FONT_COLOR
BackgroundColor BG_MAIN_COLOR
BorderColor BORDER_COLOR
BorderThickness BORDER_THICKNESS
}

skinparam rectangle<<external_person>> {
StereotypeFontColor FONT_COLOR
FontColor FONT_COLOR
BackgroundColor BG_SECONDARY_COLOR
BorderColor BORDER_COLOR
BorderThickness BORDER_THICKNESS
}

skinparam rectangle<<system>> {
StereotypeFontColor FONT_COLOR
FontColor FONT_COLOR
BackgroundColor BG_MAIN_COLOR
BorderColor BORDER_COLOR
BorderThickness BORDER_THICKNESS
}

skinparam rectangle<<external_system>> {
StereotypeFontColor FONT_COLOR
FontColor FONT_COLOR
BackgroundColor BG_SECONDARY_COLOR
BorderColor BORDER_COLOR
BorderThickness BORDER_THICKNESS
}

skinparam database<<system>> {
StereotypeFontColor FONT_COLOR
FontColor FONT_COLOR
BackgroundColor BG_MAIN_COLOR
BorderColor BORDER_COLOR
BorderThickness BORDER_THICKNESS
}

skinparam database<<external_system>> {
StereotypeFontColor FONT_COLOR
FontColor FONT_COLOR
BackgroundColor BG_SECONDARY_COLOR
BorderColor BORDER_COLOR
BorderThickness BORDER_THICKNESS
}

skinparam rectangle<<boundary>> {
Shadowing false
StereotypeFontSize 0
BackgroundColor BG_PACKAGE_COLOR
StereotypeFontColor FONT_COLOR
FontColor FONT_COLOR
BorderColor BORDER_COLOR
BorderStyle dashed
BorderThickness BORDER_THICKNESS
}
skinparam rectangle<<container>> {
Shadowing false
StereotypeFontSize 14
BackgroundColor BG_MAIN_COLOR
StereotypeFontColor FONT_COLOR
FontColor FONT_COLOR
BorderColor BORDER_COLOR
BorderThickness BORDER_THICKNESS
}


actor Foo1
boundary Foo2
control Foo3
entity Foo4
database Foo5
collections Foo6
Foo1 -> Foo2 : To boundary
Foo1 -> Foo3 : To control
Foo1 -> Foo4 : To entity
Foo1 -> Foo5 : To database
Foo1 -> Foo6 : To collections
@enduml

@startuml



skinparam Padding 4
skinparam RoundCorner 4
skinparam Shadowing false

skinparam Default {
FontColor #444444
FontSize 12
}

skinparam Arrow {
Color #444444
FontColor #444444
FontStyle Bold
}

skinparam package {
FontColor #444444
BackgroundColor #66BCF0
BorderColor #444444
}
skinparam node {
FontColor #444444
BackgroundColor #eeb291
BorderColor #444444
}
skinparam component {
BackgroundColor #66BCF0
BorderColor #444444
FontColor #444444
Style uml2
}

skinparam database {
BackgroundColor #66BCF0
BorderColor #444444
FontColor #444444
}

skinparam cloud {
BackgroundColor #66BCF0
BorderColor #444444
FontColor #444444
}

skinparam collections {
BackgroundColor #66BCF0
BorderColor #444444
FontColor #444444
}
skinparam Control {
BackgroundColor #66BCF0
BorderColor #444444
FontColor #444444
}
skinparam Boundary {
BackgroundColor #66BCF0
BorderColor #444444
FontColor #444444
}
skinparam Entity {
BackgroundColor #66BCF0
BorderColor #444444
FontColor #444444
}
skinparam interface {
BackgroundColor #66BCF0
BorderColor #444444
FontColor #444444
}
skinparam SequenceParticipantBorderThickness 3
skinparam sequence {
ParticipantBackgroundColor #66BCF0
ParticipantBorderColor #444444
ParticipantFontStyle normal
ParticipantFontColor #444444
LifeLineBorderColor #444444
LifeLineBackgroundColor #66BCF0
ArrowColor #444444
ArrowBorderColor #444444
ArrowFontColor #444444
ArrowThickness 3
ActorBackgroundColor #66BCF0
ActorBorderColor #444444
ActorFontColor #444444
}


skinparam rectangle<<person>> {
StereotypeFontColor #444444
FontColor #444444
BackgroundColor #66BCF0
BorderColor #444444
BorderThickness 3
}

skinparam rectangle<<external_person>> {
StereotypeFontColor #444444
FontColor #444444
BackgroundColor #B4BCBE
BorderColor #444444
BorderThickness 3
}

skinparam rectangle<<system>> {
StereotypeFontColor #444444
FontColor #444444
BackgroundColor #66BCF0
BorderColor #444444
BorderThickness 3
}

skinparam rectangle<<external_system>> {
StereotypeFontColor #444444
FontColor #444444
BackgroundColor #B4BCBE
BorderColor #444444
BorderThickness 3
}

skinparam database<<system>> {
StereotypeFontColor #444444
FontColor #444444
BackgroundColor #66BCF0
BorderColor #444444
BorderThickness 3
}

skinparam database<<external_system>> {
StereotypeFontColor #444444
FontColor #444444
BackgroundColor #B4BCBE
BorderColor #444444
BorderThickness 3
}

skinparam rectangle<<boundary>> {
Shadowing false
StereotypeFontSize 0
BackgroundColor #eeb291
StereotypeFontColor #444444
FontColor #444444
BorderColor #444444
BorderStyle dashed
BorderThickness 3
}
skinparam rectangle<<container>> {
Shadowing false
StereotypeFontSize 14
BackgroundColor #66BCF0
StereotypeFontColor #444444
FontColor #444444
BorderColor #444444
BorderThickness 3
}


actor Foo1
boundary Foo2
control Foo3
entity Foo4
database Foo5
collections Foo6
Foo1 -> Foo2 : To boundary
Foo1 -> Foo3 : To control
Foo1 -> Foo4 : To entity
Foo1 -> Foo5 : To database
Foo1 -> Foo6 : To collections
@enduml

PlantUML version 1.2022.8beta9(Unknown compile time)
(GPL source distribution)
Java Runtime: Java(TM) SE Runtime Environment
JVM: Java HotSpot(TM) 64-Bit Server VM
Default Encoding: UTF-8
Language: en
Country: US
--></g></svg>